{
    "dummyDataGame" : [
        {
          "_id": "5fce5526e4a2732c4c229752",
          "image": null,
          "name": "jogo de teste",
          "publications": [],
          "url": "https://chrome.google.com/webstore/detail/running-dinosaur-game/nihmpp...",
          "isActive": true,
          "ownerId": "5fce1d7e508dbb7798cf50e5",
          "complatins": [],
          "created": "2012-10-15T21:26:17Z",
          "matches": [
            {
              "_id": "5fcfe0f921030c31a8e75635",
              "mode": "single-player",
              "userId": 1001,
              "difficulty": "easy",
              "result": "draw",
              "duration": 120,
              "created": "2012-10-15T21:26:17Z"
            },
            {
              "_id": "5fcfe52a70e6142eccafe698",
              "mode": "multi-player",
              "userId": 1001,
              "difficulty": "easy",
              "result": "draw",
              "duration": 120,
              "created": "2012-10-15T21:26:17Z"
            }
          ]
        },
        {
          "_id": "5fce5526e4a2732c4c229752",
          "image": null,
          "name": "jogo de teste",
          "publications": [],
          "url": "https://chrome.google.com/webstore/detail/running-dinosaur-game/nihmpp...",
          "isActive": true,
          "ownerId": "5fce1d7e508dbb7798cf50e5",
          "complatins": [],
          "created": "2012-10-15T21:26:17Z",
          "matches": [
            {
              "_id": "5fcfe0f921030c31a8e75635",
              "mode": "single-player",
              "userId": 1001,
              "difficulty": "easy",
              "result": "draw",
              "duration": 120,
              "created": "2012-10-15T21:26:17Z"
            },
            {
              "_id": "5fcfe52a70e6142eccafe698",
              "mode": "multi-player",
              "userId": 1001,
              "difficulty": "easy",
              "result": "draw",
              "duration": 120,
              "created": "2012-10-15T21:26:17Z"
            }
          ]
        }
      ],
      "dummyDataMatch": [
        {
          "_id": "5fcecd62e4a2732c4c229762",
          "userId": 1001,
          "mode": "single-player",
          "difficulty": "easy",
          "result": "win",
          "duration": 120,
          "created": "2012-10-15T21:26:17Z"
        },
        {
          "_id": "5fcecd62e4a2732c4c229763",
          "userId": 1001,
          "mode": "single-player",
          "difficulty": "easy",
          "result": "win",
          "duration": 120,
          "created": "2012-10-15T21:26:17Z"
        },
        {
          "_id": "5fcecd62e4a2732c4c229764",
          "userId": 1001,
          "mode": "single-player",
          "difficulty": "normal",
          "result": "win",
          "duration": 120,
          "created": "2012-10-15T21:26:17Z"
        },
        {
          "_id": "5fcecd62e4a2732c4c229765",
          "userId": 1001,
          "mode": "single-player",
          "difficulty": "normal",
          "result": "win",
          "duration": 120,
          "created": "2012-10-15T21:26:17Z"
        },
        {
          "_id": "5fcfe0f921030c31a8e75636",
          "mode": "single-player",
          "userId": 1001,
          "difficulty": "easy",
          "result": "win",
          "duration": 120,
          "created": "2012-10-15T21:26:17Z"
        },
        {
          "_id": "5fcfe52a70e6142eccafe697",
          "mode": "multi-player",
          "userId": 1001,
          "difficulty": "easy",
          "result": "win",
          "duration": 120,
          "created": "2012-10-15T21:26:17Z"
        },
        {
          "_id": "5fd01081a597073134c82798",
          "mode": "multi-player",
          "userId": 1001,
          "difficulty": "easy",
          "result": "draw",
          "duration": 120,
          "created": "2012-10-15T21:26:17Z"
        },
        {
          "_id": "5fcecd62e4a2732c4c229769",
          "userId": 1001,
          "mode": "single-player",
          "difficulty": "hard",
          "result": "win",
          "duration": 120,
          "created": "2012-10-15T21:26:17Z"
        }
      ],

      "playersWichAcessedGames" : [
        {
          "event": "start-match",
          "request-id": "a11d 2734-8e4c-4e2f-9def-ed47a359f780",
          "data": {
            "game-id": "8a3ff3b9-abb7-4731-a329-cd3094743202",
            "user": {
              "id": 1001,
              "name": "John Doe",
              "birth_date": "1985-10-01",
              "mail": "jonh.due@somemail.com",
              "avatar": "(blob)"
            }
          },
          "created": "2012-10-15T21:26:17Z"
        },
        {
          "event": "start-match",
          "request-id": "a11d2734-8e4c-4e2f-9def-ed47a359f780",
          "data": {
            "game-id": "8a3ff3b9-abb7-4731-a329-cd3094743202",
            "user": {
              "id": 1001,
              "name": "John Doe",
              "birth_date": "1985-10-01",
              "mail": "jonh.due@somemail.com",
              "avatar": "(blob)"
            }
          },
          "created": "2012-10-15T21:26:17Z"
        }
      ]
}